NaN,0.16,0.195,0.23,0.265,0.3,0.335,0.37,0.405,0.44,0.475,0.51,0.545,0.58,0.615,0.65,0.685,0.72,0.755,0.79,0.825,0.86,0.895,0.93,0.965,1
-0.49988,0.035979,0.038686,0.039079,0.034883,0.032599,0.030932,0.031832,0.03438,0.030208,0.033435,0.025807,0.025572,0.037039,0.03747,0.03704,0.04413,0.055846,0.046456,0.044201,0.044029,0.044162,0.050919,0.042151,0.041372,0.040662
-0.49938,0.082458,0.083446,0.08299,0.081226,0.078792,0.078065,0.078338,0.076574,0.074931,0.076644,0.080271,0.082743,0.090352,0.0973,0.098918,0.1024,0.10714,0.10969,0.10916,0.10897,0.10826,0.11034,0.10515,0.10178,0.085514
-0.4984,0.13257,0.1331,0.13269,0.1312,0.12832,0.12724,0.12722,0.12605,0.125,0.12775,0.13364,0.1389,0.1498,0.15881,0.16335,0.16822,0.17366,0.17677,0.17794,0.17884,0.17872,0.17918,0.17342,0.16558,0.14128
-0.49692,0.18332,0.18367,0.1834,0.18189,0.17855,0.17726,0.17723,0.17653,0.17583,0.17974,0.18792,0.19563,0.20995,0.22124,0.22812,0.23452,0.24082,0.24505,0.24758,0.24921,0.24919,0.24861,0.24211,0.23069,0.19761
-0.49495,0.23399,0.23428,0.23415,0.2326,0.22879,0.22752,0.22765,0.22766,0.22766,0.23285,0.24298,0.25278,0.27031,0.28362,0.29245,0.30001,0.30704,0.31217,0.31546,0.3173,0.31736,0.31607,0.30852,0.29414,0.25315
-0.49249,0.28407,0.28432,0.28416,0.2827,0.2783,0.27694,0.27722,0.27766,0.2782,0.28443,0.29654,0.3085,0.32897,0.34446,0.35506,0.36376,0.3716,0.37764,0.38155,0.38396,0.384,0.38191,0.37358,0.35624,0.30759
-0.48955,0.33332,0.33347,0.33338,0.33183,0.32694,0.32548,0.32592,0.32674,0.32761,0.3349,0.34883,0.36268,0.38608,0.40354,0.41574,0.42566,0.43421,0.44103,0.44566,0.44848,0.44859,0.44591,0.43661,0.41677,0.36078
-0.48612,0.38152,0.38167,0.38161,0.37996,0.37462,0.37302,0.37357,0.37467,0.37595,0.38412,0.39972,0.41532,0.4413,0.46069,0.47435,0.48522,0.49457,0.5021,0.50729,0.51046,0.51051,0.50736,0.49719,0.47499,0.41258
-0.48222,0.42856,0.42867,0.42859,0.42694,0.42114,0.41945,0.42008,0.42143,0.42297,0.432,0.44901,0.46616,0.49447,0.51553,0.53052,0.54227,0.55232,0.5604,0.56611,0.56958,0.5695,0.56607,0.55511,0.53095,0.4627
-0.47784,0.47422,0.47431,0.47428,0.47254,0.46637,0.46458,0.46526,0.46685,0.46865,0.47833,0.49668,0.51512,0.54539,0.56792,0.58402,0.59664,0.60717,0.61572,0.6218,0.62549,0.62569,0.6219,0.61036,0.58435,0.51104
-0.47298,0.51843,0.51851,0.51845,0.51667,0.51022,0.50832,0.50907,0.51082,0.51283,0.52308,0.54247,0.56195,0.5939,0.61763,0.63467,0.64786,0.65888,0.66791,0.67434,0.67766,0.67771,0.67344,0.66223,0.63481,0.55749
-0.46766,0.56103,0.56108,0.56107,0.55923,0.5525,0.55054,0.55133,0.55326,0.55537,0.5661,0.58629,0.60659,0.63986,0.66449,0.68223,0.6959,0.70699,0.71594,0.72223,0.72607,0.72676,0.72237,0.71028,0.68215,0.60167
-0.46188,0.60189,0.60193,0.60194,0.60006,0.59316,0.59116,0.59199,0.59397,0.5962,0.60724,0.62799,0.6489,0.68307,0.70837,0.72661,0.74036,0.75154,0.76109,0.76804,0.77196,0.77131,0.76729,0.75426,0.72655,0.64355
-0.45565,0.64094,0.64096,0.64096,0.63909,0.63204,0.63003,0.63086,0.63291,0.63523,0.64643,0.66748,0.68874,0.72336,0.74889,0.76725,0.7815,0.79277,0.8019,0.80853,0.81236,0.81292,0.8081,0.79666,0.76653,0.68321
-0.44896,0.67805,0.67808,0.67807,0.67621,0.66915,0.66709,0.66794,0.66999,0.67236,0.68357,0.70472,0.72607,0.76066,0.78629,0.805,0.81908,0.83,0.83908,0.84564,0.8494,0.84934,0.84534,0.83347,0.80372,0.72026
-0.44183,0.71317,0.71318,0.71318,0.71135,0.70431,0.70226,0.70306,0.70514,0.70752,0.71861,0.73958,0.76076,0.79512,0.82057,0.83893,0.85278,0.86337,0.872,0.87819,0.88182,0.88202,0.87778,0.86674,0.83856,0.75479
-0.43426,0.74622,0.74621,0.74624,0.74443,0.73749,0.73547,0.73623,0.73827,0.74059,0.75148,0.77197,0.79256,0.82643,0.85119,0.86922,0.88266,0.8927,0.90084,0.90675,0.91016,0.9102,0.90643,0.89578,0.86816,0.78679
-0.42627,0.77716,0.77714,0.77717,0.77542,0.76867,0.76667,0.76739,0.76935,0.77158,0.78211,0.80195,0.82211,0.85473,0.87859,0.89601,0.90882,0.91823,0.92586,0.93123,0.93434,0.93444,0.93093,0.92119,0.89482,0.81578
-0.41785,0.80594,0.80592,0.80595,0.80428,0.79778,0.79583,0.79648,0.79834,0.80046,0.81051,0.82956,0.84865,0.87985,0.90267,0.91932,0.93138,0.93995,0.94676,0.95156,0.95433,0.95446,0.95122,0.94258,0.91789,0.84248
-0.40902,0.83255,0.83252,0.83257,0.83098,0.82478,0.8229,0.82347,0.82522,0.8272,0.83665,0.85439,0.87263,0.90194,0.92347,0.93912,0.95029,0.95788,0.96391,0.9681,0.97049,0.97053,0.96775,0.96022,0.93748,0.8666
-0.39979,0.85699,0.85694,0.85699,0.8555,0.84967,0.8479,0.84834,0.84994,0.8518,0.8606,0.87722,0.89392,0.9212,0.94114,0.95564,0.96584,0.97238,0.97744,0.98085,0.98283,0.98289,0.98054,0.97433,0.95383,0.88806
-0.39017,0.87925,0.8792,0.87926,0.87787,0.87246,0.87079,0.87113,0.87255,0.87422,0.88228,0.89738,0.91267,0.93763,0.95585,0.96902,0.97811,0.98351,0.9875,0.99011,0.99161,0.99166,0.98989,0.98505,0.96699,0.90689
-0.38016,0.89936,0.89932,0.89938,0.89811,0.89316,0.89158,0.89185,0.89308,0.89451,0.9016,0.9153,0.92901,0.95135,0.96768,0.97944,0.98729,0.99147,0.99442,0.99621,0.9972,0.99716,0.9961,0.99264,0.97726,0.92349
-0.36977,0.91737,0.91732,0.91738,0.91623,0.91179,0.91031,0.91051,0.91152,0.91277,0.919,0.93097,0.943,0.96266,0.97689,0.98719,0.99379,0.99667,0.99848,0.9994,0.99988,0.99983,0.99935,0.99748,0.98482,0.93779
-0.35902,0.93331,0.93327,0.93332,0.9323,0.92839,0.92703,0.92711,0.92791,0.92898,0.93429,0.94449,0.95478,0.97166,0.98377,0.99253,0.99786,0.99939,1,1,1,1,1,0.99981,0.98995,0.94991
-0.34791,0.94727,0.94722,0.94728,0.9464,0.943,0.94178,0.94174,0.94233,0.94305,0.94754,0.95603,0.96453,0.97855,0.98858,0.99573,0.99978,1,0.99944,0.99854,0.99806,0.99804,0.99868,1,0.99304,0.95997
-0.33646,0.95933,0.95928,0.95934,0.95859,0.95571,0.95461,0.95446,0.95492,0.95545,0.95889,0.96569,0.97246,0.98365,0.9916,0.99723,1,0.99895,0.99725,0.99549,0.99448,0.99446,0.99576,0.99855,0.99445,0.9682
-0.32468,0.96957,0.96951,0.96956,0.96896,0.96657,0.96559,0.96542,0.96547,0.96595,0.9685,0.97364,0.97874,0.98724,0.9932,0.99739,0.99891,0.99666,0.99391,0.99133,0.98979,0.98979,0.99169,0.99597,0.99453,0.97484
-0.31258,0.9781,0.97804,0.97809,0.97761,0.9757,0.97487,0.97442,0.97464,0.97475,0.9765,0.98008,0.98364,0.98964,0.99374,0.99661,0.99698,0.99361,0.98992,0.98655,0.9846,0.98461,0.98707,0.9927,0.99371,0.98006
-0.30017,0.98503,0.98497,0.98504,0.98465,0.98321,0.98248,0.98211,0.98197,0.98195,0.98298,0.98523,0.9874,0.99116,0.99363,0.9953,0.99469,0.99032,0.98578,0.98175,0.97951,0.97951,0.98243,0.98922,0.99245,0.98413
-0.28747,0.9905,0.99044,0.99052,0.9902,0.98913,0.9885,0.9881,0.98787,0.98773,0.98813,0.98928,0.9903,0.9922,0.9933,0.99393,0.99251,0.98733,0.9821,0.97754,0.97502,0.97504,0.97837,0.98613,0.99122,0.98736
-0.27448,0.99467,0.9946,0.99469,0.99448,0.99363,0.99323,0.99272,0.99241,0.99218,0.99212,0.99243,0.99258,0.99312,0.99316,0.99303,0.99099,0.98526,0.9795,0.9746,0.9718,0.97191,0.97555,0.98403,0.99051,0.98998
-0.26122,0.9977,0.99763,0.99767,0.99742,0.99697,0.9965,0.99604,0.99569,0.99539,0.99508,0.99486,0.99453,0.99428,0.99373,0.99319,0.99079,0.98477,0.97873,0.97364,0.9707,0.97092,0.97471,0.98362,0.9908,0.99221
-0.2477,0.9997,0.99958,0.99969,0.99956,0.99907,0.99878,0.99827,0.99795,0.99767,0.99731,0.99701,0.99658,0.99603,0.99541,0.99483,0.99234,0.98628,0.98021,0.97514,0.97229,0.97252,0.97641,0.98543,0.99263,0.99454
-0.23394,1,1,1,1,1,1,0.99977,0.9996,0.99939,0.99916,0.99889,0.99865,0.99833,0.99781,0.99741,0.99508,0.98909,0.98318,0.97827,0.97564,0.97587,0.97986,0.98885,0.99577,0.99723
-0.21994,0.99873,0.99861,0.99875,0.99877,0.99947,0.99993,1,1,1,1,1,1,1,0.99975,0.99951,0.99741,0.99165,0.98595,0.98126,0.97883,0.97922,0.98326,0.99214,0.99871,0.99944
-0.20573,0.99561,0.99556,0.99559,0.99572,0.99708,0.99797,0.99849,0.99876,0.99895,0.99916,0.99942,0.99972,0.99997,1,1,0.99813,0.99261,0.98715,0.98271,0.9804,0.98096,0.98498,0.99376,1,1
-0.19132,0.99067,0.99061,0.99066,0.991,0.99314,0.9946,0.99521,0.99567,0.99606,0.9966,0.99716,0.99771,0.99826,0.99849,0.99873,0.9971,0.99183,0.98664,0.98242,0.98029,0.98104,0.98506,0.99368,0.99966,0.9989
-0.17672,0.98403,0.98396,0.98403,0.98453,0.98752,0.98952,0.99068,0.99142,0.99198,0.99252,0.99345,0.99424,0.99521,0.99567,0.99615,0.99478,0.98978,0.98487,0.98092,0.97901,0.97993,0.98399,0.99243,0.9981,0.99649
-0.16194,0.97576,0.97567,0.97576,0.97642,0.98038,0.98305,0.98462,0.98563,0.98651,0.98744,0.98852,0.98984,0.99094,0.99177,0.99255,0.99147,0.98678,0.98218,0.97852,0.97687,0.97796,0.98204,0.99036,0.99557,0.99306
-0.147,0.96592,0.96584,0.96594,0.96677,0.97181,0.97523,0.97728,0.97861,0.97974,0.98096,0.98248,0.98412,0.9856,0.98685,0.98796,0.98718,0.98282,0.97859,0.97527,0.9739,0.97515,0.97931,0.9874,0.99211,0.98858
-0.13192,0.95457,0.95451,0.95458,0.95562,0.96186,0.9661,0.96866,0.97036,0.97176,0.97332,0.97525,0.97731,0.9793,0.98081,0.9821,0.98188,0.97786,0.97403,0.97106,0.96999,0.97144,0.97564,0.98352,0.98765,0.98318
-0.11671,0.94179,0.94172,0.94177,0.94307,0.95059,0.95569,0.95882,0.9609,0.9626,0.96453,0.96689,0.96942,0.97181,0.97376,0.97569,0.97533,0.97192,0.96853,0.96594,0.96519,0.96687,0.97109,0.9787,0.98222,0.97671
-0.10138,0.92764,0.92755,0.92762,0.92916,0.93806,0.94409,0.94783,0.9503,0.95234,0.95466,0.95749,0.9605,0.96336,0.96575,0.96801,0.96823,0.96516,0.96208,0.96003,0.95955,0.96151,0.96574,0.97309,0.97591,0.96932
-0.085954,0.91218,0.9121,0.91218,0.91397,0.92435,0.93138,0.93576,0.93868,0.94106,0.9438,0.94711,0.95064,0.95401,0.95688,0.95953,0.96016,0.95754,0.95507,0.95318,0.95315,0.95543,0.95967,0.96668,0.96909,0.96112
-0.070442,0.89551,0.89545,0.89551,0.89758,0.90953,0.91762,0.9227,0.92607,0.92883,0.932,0.93583,0.9399,0.94383,0.9472,0.95025,0.95134,0.94918,0.94721,0.94586,0.94626,0.94832,0.9527,0.95963,0.96136,0.95214
-0.05486,0.87773,0.87765,0.87773,0.88008,0.89368,0.90289,0.90871,0.91255,0.91571,0.91933,0.92369,0.92834,0.93285,0.93674,0.94021,0.94177,0.94013,0.93863,0.93782,0.93855,0.941,0.94545,0.95202,0.95301,0.94243
-0.039225,0.85889,0.85881,0.8589,0.86156,0.87688,0.88725,0.89384,0.89817,0.90173,0.90583,0.91077,0.91602,0.92112,0.92552,0.9295,0.93153,0.93045,0.92943,0.92911,0.93025,0.933,0.93742,0.94374,0.94402,0.932
-0.02355,0.83909,0.83903,0.83909,0.84208,0.85921,0.87077,0.87814,0.88301,0.88699,0.89158,0.89712,0.90297,0.90869,0.91365,0.91813,0.92062,0.92012,0.91961,0.91983,0.92139,0.92444,0.92883,0.93482,0.93439,0.92092
-0.0078527,0.81844,0.81837,0.81843,0.82173,0.84072,0.85353,0.86171,0.86711,0.87154,0.87663,0.88278,0.88927,0.89561,0.90118,0.90616,0.90913,0.90923,0.90933,0.90999,0.91206,0.91529,0.91964,0.92535,0.92417,0.90922
0.0078527,0.79696,0.79694,0.79699,0.80063,0.8215,0.83559,0.84459,0.85056,0.85544,0.86104,0.8678,0.87496,0.88194,0.8881,0.8936,0.89717,0.89764,0.89843,0.89971,0.90205,0.90573,0.91019,0.91539,0.91338,0.89696
0.02355,0.77485,0.77475,0.77484,0.77885,0.80163,0.81703,0.82688,0.8334,0.83874,0.84487,0.85225,0.86009,0.86775,0.87441,0.88044,0.88456,0.88564,0.88702,0.88886,0.89166,0.89554,0.9,0.90493,0.90223,0.88418
0.039225,0.75217,0.75193,0.75207,0.75647,0.78119,0.79791,0.80861,0.81569,0.82149,0.82816,0.83617,0.84469,0.85297,0.8601,0.86684,0.87147,0.87319,0.87515,0.87759,0.88077,0.88492,0.88946,0.89401,0.89045,0.87093
0.05486,0.72924,0.72877,0.72884,0.73357,0.76024,0.77826,0.78982,0.79746,0.80372,0.81094,0.81957,0.82882,0.83775,0.84531,0.85271,0.85787,0.86021,0.86275,0.86579,0.86936,0.8738,0.87839,0.88258,0.87823,0.85714
0.070442,0.70609,0.70539,0.70528,0.71022,0.73882,0.75814,0.77056,0.77876,0.78548,0.79322,0.80248,0.81235,0.82198,0.83017,0.83808,0.84374,0.8467,0.84983,0.85341,0.85743,0.86214,0.86673,0.87056,0.8654,0.84279
0.085954,0.68292,0.68201,0.6816,0.68654,0.71707,0.73766,0.75091,0.75967,0.76686,0.77511,0.78501,0.79553,0.80579,0.81476,0.82305,0.82921,0.83276,0.83651,0.84061,0.84508,0.85009,0.85463,0.8581,0.85214,0.82797
0.10138,0.65976,0.6587,0.65794,0.66274,0.69512,0.71696,0.73105,0.74035,0.74802,0.75676,0.7673,0.77846,0.78936,0.79911,0.80775,0.81446,0.8186,0.82298,0.82763,0.83258,0.83786,0.84241,0.84549,0.83871,0.81304
0.11671,0.63663,0.63543,0.63438,0.63897,0.67301,0.69612,0.71099,0.72085,0.72894,0.73821,0.74934,0.76118,0.77273,0.78308,0.7922,0.79945,0.80418,0.80922,0.81445,0.81988,0.82543,0.83002,0.83272,0.82509,0.7978
0.13192,0.61352,0.61214,0.61093,0.61522,0.65061,0.67488,0.69052,0.70088,0.7094,0.71915,0.73084,0.74332,0.75548,0.7663,0.77594,0.78368,0.78895,0.79459,0.80039,0.80625,0.81199,0.81666,0.819,0.81057,0.78191
0.147,0.59039,0.58888,0.58747,0.59154,0.62769,0.65305,0.66937,0.68019,0.68908,0.69923,0.71145,0.72445,0.73708,0.74834,0.75842,0.76652,0.7723,0.77839,0.78462,0.7908,0.79671,0.80135,0.80341,0.79436,0.76459
0.16194,0.56719,0.56564,0.56404,0.56789,0.60432,0.6306,0.64755,0.65875,0.66794,0.67847,0.69111,0.70451,0.71756,0.72915,0.73951,0.74795,0.75409,0.76051,0.76701,0.77342,0.77943,0.78396,0.78582,0.77636,0.74592
0.17672,0.54411,0.54248,0.54078,0.54447,0.58072,0.6078,0.6253,0.63682,0.64629,0.65714,0.67012,0.68387,0.69725,0.70913,0.7197,0.72839,0.73481,0.74146,0.74817,0.75471,0.76078,0.76521,0.76688,0.75713,0.7262
0.19132,0.52131,0.51961,0.51777,0.52132,0.55719,0.58495,0.60289,0.61469,0.62441,0.63552,0.64879,0.66285,0.67648,0.68861,0.69937,0.70824,0.7149,0.72178,0.72864,0.73527,0.74132,0.74566,0.74713,0.73722,0.70595
0.20573,0.49878,0.49704,0.49513,0.49855,0.53391,0.56215,0.58047,0.59251,0.60243,0.61377,0.62729,0.64159,0.65544,0.66779,0.67867,0.68771,0.69456,0.70163,0.70862,0.71534,0.72135,0.72562,0.72689,0.71689,0.68533
0.21994,0.47664,0.47487,0.4729,0.4762,0.51098,0.53946,0.55809,0.57033,0.58042,0.59195,0.60565,0.62016,0.63419,0.64669,0.65769,0.66685,0.67387,0.68111,0.6882,0.69497,0.70094,0.70511,0.70621,0.69612,0.66437
0.23394,0.4549,0.45311,0.45111,0.4543,0.4885,0.51696,0.53583,0.54824,0.55844,0.57011,0.58395,0.59862,0.61278,0.62537,0.63645,0.64572,0.65288,0.66025,0.66743,0.6742,0.68012,0.68418,0.68516,0.67499,0.64318
0.2477,0.43361,0.43183,0.42981,0.4329,0.46649,0.49468,0.51372,0.52626,0.53651,0.54828,0.56222,0.57699,0.59123,0.60385,0.61497,0.62431,0.63159,0.63908,0.64629,0.65307,0.65891,0.66286,0.66376,0.6535,0.62176
0.26122,0.41282,0.41105,0.40902,0.41204,0.44497,0.47264,0.4918,0.50441,0.51469,0.5265,0.54049,0.5553,0.56955,0.58217,0.59328,0.60264,0.61001,0.61757,0.62483,0.63155,0.63735,0.64117,0.64197,0.63168,0.60008
0.27448,0.39254,0.39081,0.38879,0.39173,0.42393,0.4509,0.47012,0.48272,0.49301,0.50481,0.51878,0.53357,0.54779,0.56034,0.57143,0.58074,0.58819,0.59576,0.60304,0.60967,0.61541,0.61911,0.61981,0.60952,0.57818
0.28747,0.37284,0.37114,0.36913,0.37201,0.40342,0.42956,0.44871,0.46126,0.47151,0.48325,0.49714,0.51185,0.52597,0.53842,0.54941,0.55866,0.56616,0.57369,0.58096,0.58747,0.59313,0.59671,0.59733,0.58708,0.5561
0.30017,0.35372,0.35206,0.3501,0.3529,0.38346,0.40868,0.4276,0.44005,0.45022,0.46185,0.47561,0.49017,0.50414,0.51644,0.52729,0.53644,0.54392,0.55139,0.5586,0.56499,0.57057,0.574,0.57454,0.56438,0.53387
0.31258,0.33522,0.33362,0.3317,0.33443,0.36407,0.38834,0.40684,0.41914,0.4292,0.44066,0.45423,0.46858,0.48233,0.49445,0.50509,0.51412,0.52152,0.52891,0.53601,0.5423,0.54774,0.55104,0.55147,0.54149,0.51154
0.32468,0.31738,0.31582,0.31397,0.3166,0.3453,0.36858,0.38649,0.39858,0.40847,0.41972,0.43305,0.44711,0.46059,0.47248,0.48288,0.49175,0.49904,0.5063,0.51325,0.51944,0.52469,0.52788,0.52821,0.51842,0.48918
0.33646,0.3002,0.29871,0.29692,0.29948,0.32713,0.3494,0.36659,0.37839,0.38808,0.39908,0.4121,0.42581,0.43898,0.45057,0.46071,0.46937,0.4765,0.48362,0.49037,0.49642,0.5015,0.50455,0.50479,0.49528,0.46683
0.34791,0.28372,0.28228,0.28059,0.28304,0.3096,0.33084,0.34721,0.35863,0.36808,0.37878,0.39143,0.40474,0.41753,0.42879,0.43863,0.44705,0.45397,0.4609,0.46744,0.47333,0.4782,0.4811,0.4813,0.47211,0.44458
0.35902,0.26793,0.26658,0.26496,0.26733,0.29271,0.3129,0.32838,0.33933,0.34851,0.35887,0.37109,0.38395,0.39631,0.40718,0.4167,0.42482,0.43152,0.43822,0.44452,0.45021,0.45485,0.4576,0.45779,0.44896,0.42244
0.36977,0.25288,0.2516,0.25007,0.25235,0.27649,0.29561,0.31017,0.32058,0.32941,0.33937,0.35114,0.3635,0.37538,0.38582,0.39498,0.40275,0.4092,0.41563,0.42168,0.42712,0.43157,0.43417,0.43436,0.4259,0.40048
0.38016,0.23855,0.23736,0.23591,0.2381,0.26097,0.27898,0.29261,0.30241,0.3108,0.32033,0.33162,0.34345,0.35479,0.36475,0.37353,0.38092,0.38707,0.39323,0.39899,0.40418,0.40841,0.41086,0.41106,0.40298,0.37878
0.39017,0.22498,0.22385,0.22251,0.22458,0.24614,0.26303,0.27575,0.28491,0.29278,0.30182,0.31257,0.32385,0.33462,0.34405,0.35239,0.35939,0.36521,0.37107,0.37653,0.38144,0.38545,0.38775,0.38796,0.38028,0.35739
0.39979,0.21215,0.21111,0.20985,0.21182,0.23203,0.24778,0.2596,0.26809,0.27537,0.28388,0.29405,0.30475,0.31491,0.32379,0.33165,0.33825,0.34373,0.34925,0.35439,0.35898,0.36279,0.36492,0.36514,0.3579,0.33636
0.40902,0.20008,0.19911,0.19796,0.1998,0.21863,0.23325,0.24418,0.25199,0.25867,0.26662,0.27615,0.2862,0.29572,0.30404,0.31141,0.31757,0.3227,0.32787,0.33267,0.33692,0.34051,0.34248,0.34272,0.33594,0.3158
0.41785,0.18877,0.18788,0.18682,0.18855,0.20598,0.21945,0.22949,0.23663,0.24271,0.25007,0.25891,0.26825,0.2771,0.28486,0.29173,0.29744,0.30219,0.307,0.31145,0.31536,0.31871,0.3205,0.32079,0.3145,0.29581
0.42627,0.1782,0.1774,0.17644,0.17804,0.19405,0.20639,0.21555,0.22206,0.22757,0.2343,0.24241,0.25097,0.25915,0.26634,0.27268,0.27794,0.2823,0.28672,0.29083,0.29439,0.29747,0.29909,0.29943,0.29368,0.27642
0.43426,0.16841,0.16766,0.1668,0.16828,0.18288,0.19408,0.20238,0.20827,0.21325,0.21932,0.22667,0.23439,0.24191,0.24853,0.25434,0.25916,0.26309,0.26711,0.27086,0.27409,0.27687,0.27836,0.27873,0.27356,0.25774
0.44183,0.15932,0.15868,0.1579,0.15924,0.17244,0.18254,0.18998,0.19528,0.19975,0.20519,0.21176,0.21864,0.22548,0.2315,0.23677,0.24115,0.24465,0.24825,0.25164,0.25454,0.25702,0.25837,0.25878,0.25421,0.23983
0.44896,0.15099,0.15039,0.14972,0.15094,0.16274,0.17176,0.17837,0.18309,0.18708,0.19189,0.1977,0.20377,0.20989,0.21532,0.22004,0.22396,0.22705,0.23023,0.23325,0.23582,0.23802,0.23923,0.23969,0.23569,0.22278
0.45565,0.14333,0.14284,0.14222,0.1433,0.15378,0.16174,0.16756,0.17173,0.17525,0.17947,0.18454,0.18983,0.19523,0.20003,0.2042,0.20766,0.21034,0.21312,0.21575,0.218,0.21995,0.221,0.22154,0.21808,0.20665
0.46188,0.13635,0.13594,0.13546,0.1364,0.14553,0.15247,0.15753,0.16117,0.16423,0.16789,0.17227,0.17688,0.18154,0.18568,0.18932,0.19232,0.19459,0.19696,0.19921,0.20117,0.20287,0.2038,0.2044,0.20145,0.19148
0.46766,0.13014,0.12971,0.12929,0.13013,0.13805,0.14402,0.14834,0.15147,0.1541,0.15723,0.16096,0.16491,0.16886,0.17232,0.17545,0.17799,0.17987,0.18185,0.18369,0.1854,0.18685,0.18769,0.18835,0.18587,0.17733
0.47298,0.12461,0.12426,0.12382,0.12448,0.13126,0.13633,0.13998,0.14264,0.14487,0.14752,0.15069,0.15397,0.15726,0.1601,0.16274,0.16484,0.16634,0.16793,0.16941,0.17085,0.17209,0.17282,0.17355,0.17153,0.16434
0.47784,0.11967,0.11943,0.11914,0.11973,0.12522,0.12943,0.13245,0.13465,0.1365,0.13871,0.14137,0.14408,0.14673,0.14899,0.15117,0.15285,0.154,0.15522,0.15636,0.15755,0.15859,0.15921,0.16,0.15842,0.15253
0.48222,0.11538,0.11518,0.11501,0.11562,0.11997,0.12337,0.1258,0.12759,0.12911,0.13086,0.13297,0.13521,0.13729,0.13903,0.14079,0.14208,0.1429,0.14377,0.1446,0.14553,0.1464,0.14691,0.14778,0.1466,0.14189
0.48612,0.11176,0.11156,0.11142,0.11198,0.11534,0.11805,0.11996,0.12136,0.12262,0.12399,0.12557,0.12736,0.12895,0.13026,0.13162,0.13257,0.13308,0.13363,0.13419,0.13488,0.13558,0.13599,0.13692,0.13612,0.13246
0.48955,0.10873,0.10857,0.10841,0.1088,0.11138,0.11345,0.11489,0.11596,0.11695,0.118,0.1192,0.12054,0.12171,0.12264,0.12366,0.12429,0.12452,0.12478,0.12511,0.12557,0.12611,0.12643,0.12744,0.12697,0.12428
0.49249,0.10617,0.10608,0.10594,0.10609,0.1081,0.10957,0.11061,0.11139,0.11211,0.11288,0.11376,0.11472,0.11553,0.11614,0.11686,0.11722,0.11719,0.11721,0.11734,0.11759,0.11798,0.11824,0.11931,0.11914,0.1173
0.49495,0.10407,0.10402,0.10392,0.10399,0.10541,0.10639,0.10709,0.10764,0.10811,0.10863,0.10923,0.10988,0.11039,0.11073,0.11121,0.11135,0.1111,0.11091,0.11086,0.11093,0.11121,0.1114,0.11253,0.11262,0.11147
0.49692,0.10243,0.1024,0.10235,0.1024,0.10327,0.10386,0.10428,0.10464,0.10494,0.10528,0.10563,0.10602,0.10629,0.10643,0.10672,0.10666,0.10623,0.10588,0.10569,0.1056,0.10578,0.10593,0.10711,0.10741,0.10683
0.4984,0.10123,0.10121,0.10119,0.10122,0.10167,0.10197,0.10219,0.1024,0.10259,0.10278,0.10295,0.10314,0.10323,0.10322,0.10336,0.10316,0.10259,0.10211,0.10182,0.10161,0.10172,0.10183,0.10305,0.10351,0.10335
0.49938,0.10043,0.10042,0.10042,0.10044,0.1006,0.10072,0.1008,0.1009,0.10102,0.10112,0.10116,0.10122,0.1012,0.10108,0.10112,0.10083,0.10016,0.099605,0.099234,0.098948,0.099004,0.099092,0.10035,0.10091,0.10104
0.49988,0.10004,0.10003,0.10004,0.10005,0.10007,0.1001,0.1001,0.10016,0.10024,0.10029,0.10027,0.10026,0.10018,0.10001,0.10001,0.099664,0.098946,0.098351,0.097944,0.097616,0.097647,0.097724,0.098995,0.099616,0.099879
