0.21039,NaN
0.21195,NaN
0.21506,-26.534
0.2197,-34.339
0.22587,-41.15
0.23354,-47.089
0.24267,-52.337
0.25323,-56.968
0.26517,-61.054
0.27846,-64.688
0.29304,-67.749
0.30885,-70.709
0.32583,-73.768
0.34391,-76.61
0.36302,-79.424
0.38309,-82.224
0.40403,-85.094
0.42576,-87.968
0.4482,-90.948
0.47126,-94.46
0.49485,-99.224
0.51888,-104.21
0.54324,-109.96
0.56785,-115.97
0.5926,-121.85
0.6174,-127.42
0.64215,-131.88
0.66676,-137.53
0.69112,-143.87
0.71515,-150.08
0.73874,-155.18
0.7618,-159.81
0.78424,-163.85
0.80597,-166.04
0.82691,-166.49
0.84698,-165.6
0.86609,-162.8
0.88417,-158.1
0.90115,-152.37
0.91696,-145.06
0.93154,-137.71
0.94483,-130.78
0.95677,-123.42
0.96733,-115.44
0.97646,-106.77
0.98413,-98.066
0.9903,-88.805
0.99494,-77.968
0.99805,-63.532
0.99961,-35.656
